{
  "project_info": {
    "project_number": "215342763183",
    "project_id": "sample-5be14",
    "storage_bucket": "sample-5be14.appspot.com"
  },
  "client": [
    {
      "client_info": {
        "mobilesdk_app_id": "1:215342763183:android:5c118d05cfd03eeaa2185a",
        "android_client_info": {
          "package_name": "com.sample"
        }
      },
      "oauth_client": [
        {
          "client_id": "215342763183-tut8k0uih3rsovvgji9nclufhikcfg6u.apps.googleusercontent.com",
          "client_type": 3
        }
      ],
      "api_key": [
        {
          "current_key": "AIzaSyCxhA2r-gUS9jMIXh2kVJzse92zPVhy35Y"
        }
      ],
      "services": {
        "appinvite_service": {
          "other_platform_oauth_client": [
            {
              "client_id": "215342763183-tut8k0uih3rsovvgji9nclufhikcfg6u.apps.googleusercontent.com",
              "client_type": 3
            }
          ]
        }
      }
    }
  ],
  "configuration_version": "1"
}